{
  "project_info": {
    "project_number": "908120857470",
    "firebase_url": "https://qcab-6df57.firebaseio.com",
    "project_id": "qcab-6df57",
    "storage_bucket": "qcab-6df57.appspot.com"
  },
  "client": [
    {
      "client_info": {
        "mobilesdk_app_id": "1:908120857470:android:5fc00e33724bc122",
        "android_client_info": {
          "package_name": "com.qcab.driver"
        }
      },
      "oauth_client": [
        {
          "client_id": "908120857470-rd827tg5fr795of7bf6ikooicosgejg9.apps.googleusercontent.com",
          "client_type": 1,
          "android_info": {
            "package_name": "com.qcab.driver",
            "certificate_hash": "72b31c855d8974cdfe4e7f29e94ff8d14418c581"
          }
        },
        {
          "client_id": "908120857470-3hvmvv01hp014nkqi6gq4lnchp9evmmh.apps.googleusercontent.com",
          "client_type": 1,
          "android_info": {
            "package_name": "com.qcab.driver",
            "certificate_hash": "f99d96c98e6d70aa403700d59b556e0ddf965686"
          }
        },
        {
          "client_id": "908120857470-hsh7ckbeu4ccfje0jardhb4lk2rvr75h.apps.googleusercontent.com",
          "client_type": 1,
          "android_info": {
            "package_name": "com.qcab.driver",
            "certificate_hash": "e4911d889faaa9846e046b8ad2eae82cd0846bfd"
          }
        },
        {
          "client_id": "908120857470-3qmcse5sf7miico2e4pothis1m2s7f7n.apps.googleusercontent.com",
          "client_type": 1,
          "android_info": {
            "package_name": "com.qcab.driver",
            "certificate_hash": "783f7f2cbe4eacad89a3fe18fd59e7d74952c27c"
          }
        },
        {
          "client_id": "908120857470-pcec57rv6p5ln1iull2olbmp4mm0s3oj.apps.googleusercontent.com",
          "client_type": 1,
          "android_info": {
            "package_name": "com.qcab.driver",
            "certificate_hash": "2daca1d77fae2e7295b2bf1d2c58ab8a7b36c795"
          }
        },
        {
          "client_id": "908120857470-3q5dbrikvm9nd4iqnqkl0gfopg6lb8lp.apps.googleusercontent.com",
          "client_type": 3
        }
      ],
      "api_key": [
        {
          "current_key": "AIzaSyBOannuFaKHc7lrYMjRnY7IA-uy1C8rTwk"
        }
      ],
      "services": {
        "appinvite_service": {
          "other_platform_oauth_client": [
            {
              "client_id": "908120857470-3q5dbrikvm9nd4iqnqkl0gfopg6lb8lp.apps.googleusercontent.com",
              "client_type": 3
            },
            {
              "client_id": "908120857470-dtj9b8oon33e6v4r7mpu8r3d89m3ffvg.apps.googleusercontent.com",
              "client_type": 2,
              "ios_info": {
                "bundle_id": "com.qcab.rider"
              }
            }
          ]
        }
      }
    },
    {
      "client_info": {
        "mobilesdk_app_id": "1:908120857470:android:2f7da85ab11f7b7e",
        "android_client_info": {
          "package_name": "com.qcab.rider"
        }
      },
      "oauth_client": [
        {
          "client_id": "908120857470-750nl9npbrg9hporfhdfnbpjlf2gm2t5.apps.googleusercontent.com",
          "client_type": 1,
          "android_info": {
            "package_name": "com.qcab.rider",
            "certificate_hash": "72b31c855d8974cdfe4e7f29e94ff8d14418c581"
          }
        },
        {
          "client_id": "908120857470-qnf67pltpdojc72dlalj7iim62dvkrnj.apps.googleusercontent.com",
          "client_type": 1,
          "android_info": {
            "package_name": "com.qcab.rider",
            "certificate_hash": "e4911d889faaa9846e046b8ad2eae82cd0846bfd"
          }
        },
        {
          "client_id": "908120857470-vcftlfdsrtln16b240s3cn7uc9mhl1cc.apps.googleusercontent.com",
          "client_type": 1,
          "android_info": {
            "package_name": "com.qcab.rider",
            "certificate_hash": "783f7f2cbe4eacad89a3fe18fd59e7d74952c27c"
          }
        },
        {
          "client_id": "908120857470-avogko3316uri2rm2mtl3uscf2seph96.apps.googleusercontent.com",
          "client_type": 1,
          "android_info": {
            "package_name": "com.qcab.rider",
            "certificate_hash": "2daca1d77fae2e7295b2bf1d2c58ab8a7b36c795"
          }
        },
        {
          "client_id": "908120857470-3q5dbrikvm9nd4iqnqkl0gfopg6lb8lp.apps.googleusercontent.com",
          "client_type": 3
        }
      ],
      "api_key": [
        {
          "current_key": "AIzaSyBOannuFaKHc7lrYMjRnY7IA-uy1C8rTwk"
        }
      ],
      "services": {
        "appinvite_service": {
          "other_platform_oauth_client": [
            {
              "client_id": "908120857470-3q5dbrikvm9nd4iqnqkl0gfopg6lb8lp.apps.googleusercontent.com",
              "client_type": 3
            },
            {
              "client_id": "908120857470-dtj9b8oon33e6v4r7mpu8r3d89m3ffvg.apps.googleusercontent.com",
              "client_type": 2,
              "ios_info": {
                "bundle_id": "com.qcab.rider"
              }
            }
          ]
        }
      }
    }
  ],
  "configuration_version": "1"
}